[
  {
    "fields": {
      "type": {
        "type": "select",
        "label": "Tipo",
        "value": [
          {
            "label": "Default",
            "value": "btn-default",
            "selected": false
          },
          {
            "label": "Primary",
            "value": "btn-primary",
            "selected": true
          },
          {
            "label": "Info",
            "value": "btn-info",
            "selected": false
          },
          {
            "label": "Success",
            "value": "btn-success",
            "selected": false
          },
          {
            "label": "Warning",
            "value": "btn-warning",
            "selected": false
          },
          {
            "label": "Danger",
            "value": "btn-danger",
            "selected": false
          },
          {
            "label": "Inverse",
            "value": "btn-inverse",
            "selected": false
          }
        ]
      },
      "id": {
        "type": "input",
        "label": "ID",
        "value": "singlebutton"
      },
      "label": {
        "type": "input",
        "label": "Título",
        "value": "Enviar"
      },
    },
    "title": "Single Button"
  }
]